^D:\PROJECTS\REPOSITORIES\MYREPOSITORY\MYCHATROOM\MYCHATROOM\X64\RELEASE\ICON.RES|D:\PROJECTS\REPOSITORIES\MYREPOSITORY\MYCHATROOM\MYCHATROOM\X64\RELEASE\MAIN.OBJ|D:\PROJECTS\REPOSITORIES\MYREPOSITORY\MYCHATROOM\MYCHATROOM\X64\RELEASE\MOC_MYCHATROOM.OBJ|D:\PROJECTS\REPOSITORIES\MYREPOSITORY\MYCHATROOM\MYCHATROOM\X64\RELEASE\MYCHATROOM.OBJ|D:\PROJECTS\REPOSITORIES\MYREPOSITORY\MYCHATROOM\MYCHATROOM\X64\RELEASE\MYLIB.OBJ|D:\PROJECTS\REPOSITORIES\MYREPOSITORY\MYCHATROOM\MYCHATROOM\X64\RELEASE\MYTCP.OBJ|D:\PROJECTS\REPOSITORIES\MYREPOSITORY\MYCHATROOM\MYCHATROOM\X64\RELEASE\QRC_MYCHATROOM.OBJ
/OUT:"D:\PROJECTS\REPOSITORIES\MYREPOSITORY\MYCHATROOM\X64\RELEASE\\MYCHATROOM.EXE" /NOLOGO /LIBPATH:C:\QT\QT5.13.1\5.13.1\MSVC2017_64\LIB QTMAIN.LIB QT5CORE.LIB QT5GUI.LIB QT5WIDGETS.LIB KERNEL32.LIB USER32.LIB GDI32.LIB WINSPOOL.LIB COMDLG32.LIB ADVAPI32.LIB SHELL32.LIB OLE32.LIB OLEAUT32.LIB UUID.LIB ODBC32.LIB ODBCCP32.LIB /MANIFEST /MANIFESTUAC:"level='asInvoker' uiAccess='false'" /manifest:embed /DEBUG /PDB:"D:\PROJECTS\REPOSITORIES\MYREPOSITORY\MYCHATROOM\X64\RELEASE\MYCHATROOM.PDB" /SUBSYSTEM:WINDOWS /TLBID:1 /DYNAMICBASE /NXCOMPAT /IMPLIB:"D:\PROJECTS\REPOSITORIES\MYREPOSITORY\MYCHATROOM\X64\RELEASE\MYCHATROOM.LIB" /MACHINE:X64 X64\RELEASE\ICON.RES
X64\RELEASE\MAIN.OBJ
X64\RELEASE\MYCHATROOM.OBJ
X64\RELEASE\MYLIB.OBJ
X64\RELEASE\MYTCP.OBJ
X64\RELEASE\QRC_MYCHATROOM.OBJ
X64\RELEASE\MOC_MYCHATROOM.OBJ
